v 20110115 2
C 40000 40000 0 0 0 title-B.sym
G 47100 44303 2500 3459 270 0 0
/home/sergey/Рабочий стол/400px-Arduino_MB_Leonardo_01.jpg
C 43200 43900 1 0 0 TSOPXXXX.sym
C 46100 45400 1 180 0 resistor-2.sym
{
T 45700 45050 5 10 0 0 180 0 1
device=RESISTOR
T 45900 45100 5 10 1 1 180 0 1
100 Om=R1
T 45300 45500 5 10 1 1 0 0 1
lable=100 Ω
}
N 45200 45300 44500 45300 4
N 46100 45300 46600 45300 4
N 46600 45300 46600 45800 4
N 46600 45800 47200 45800 4
N 44500 44800 46900 44800 4
N 46900 44800 46900 45600 4
N 46900 45600 47200 45600 4
N 45000 44100 49900 44100 4
N 49900 44100 49900 44900 4
N 49900 44900 49500 44900 4
N 45000 44100 45000 44300 4
N 45000 44300 44500 44300 4
